[
    {
        "id": 1,
        "type": null,
        "name_en": "VDO Banner",
        "link_video": "https://www.youtube.com/embed/5GbuO_DO42Q?playlist=5GbuO_DO42Q",
        "is_active": "Y",
        "created_at": "2020-04-27 12:21:32",
        "updated_at": "2020-05-11 21:29:10",
        "imagemobile": "1590364145544.gif"
    }
]
